-- Merging decision tree log ---
manifest
ADDED from D:\flutter\topsonia_ai\android\app\src\main\AndroidManifest.xml:1:1-51:12
INJECTED from D:\flutter\topsonia_ai\android\app\src\main\AndroidManifest.xml:1:1-51:12
INJECTED from D:\flutter\topsonia_ai\android\app\src\main\AndroidManifest.xml:1:1-51:12
INJECTED from D:\flutter\topsonia_ai\android\app\src\main\AndroidManifest.xml:1:1-51:12
MERGED from D:\flutter\topsonia_ai\android\app\src\main\AndroidManifest.xml:1:1-51:12
MERGED from [:video_player] D:\flutter\topsonia_ai\build\video_player\intermediates\library_manifest\debug\AndroidManifest.xml:2:1-7:12
MERGED from [:sqflite] D:\flutter\topsonia_ai\build\sqflite\intermediates\library_manifest\debug\AndroidManifest.xml:2:1-7:12
MERGED from [:path_provider] D:\flutter\topsonia_ai\build\path_provider\intermediates\library_manifest\debug\AndroidManifest.xml:2:1-7:12
MERGED from [:webview_flutter_android] D:\flutter\topsonia_ai\build\webview_flutter_android\intermediates\library_manifest\debug\AndroidManifest.xml:2:1-7:12
MERGED from [:wakelock] D:\flutter\topsonia_ai\build\wakelock\intermediates\library_manifest\debug\AndroidManifest.xml:2:1-7:12
MERGED from [com.google.android.exoplayer:exoplayer-hls:2.14.1] C:\Users\zZet\.gradle\caches\transforms-2\files-2.1\b2ea5e05fb4fb851184e9b0af980bf49\jetified-exoplayer-hls-2.14.1\AndroidManifest.xml:17:1-24:12
MERGED from [com.google.android.exoplayer:exoplayer-dash:2.14.1] C:\Users\zZet\.gradle\caches\transforms-2\files-2.1\f09b8ddd78b021f724ecbb270644c7ef\jetified-exoplayer-dash-2.14.1\AndroidManifest.xml:17:1-24:12
MERGED from [com.google.android.exoplayer:exoplayer-smoothstreaming:2.14.1] C:\Users\zZet\.gradle\caches\transforms-2\files-2.1\d9c8ace75a2893fac3be87cf34cd39b5\jetified-exoplayer-smoothstreaming-2.14.1\AndroidManifest.xml:17:1-24:12
MERGED from [com.google.android.exoplayer:exoplayer-core:2.14.1] C:\Users\zZet\.gradle\caches\transforms-2\files-2.1\60b85d32c76f6174d43e445a6aa2cefb\jetified-exoplayer-core-2.14.1\AndroidManifest.xml:17:1-26:12
MERGED from [androidx.webkit:webkit:1.0.0] C:\Users\zZet\.gradle\caches\transforms-2\files-2.1\cbbb6921b2521959953b0c781fe5c304\webkit-1.0.0\AndroidManifest.xml:17:1-22:12
MERGED from [androidx.fragment:fragment:1.1.0] C:\Users\zZet\.gradle\caches\transforms-2\files-2.1\2fd9120a6da4df3dbabdd40f6a2d8995\fragment-1.1.0\AndroidManifest.xml:17:1-24:12
MERGED from [androidx.viewpager:viewpager:1.0.0] C:\Users\zZet\.gradle\caches\transforms-2\files-2.1\eb26273f8f7192460456ce62b9bdf9ef\viewpager-1.0.0\AndroidManifest.xml:17:1-22:12
MERGED from [androidx.loader:loader:1.0.0] C:\Users\zZet\.gradle\caches\transforms-2\files-2.1\d9536c14ffde0b7289f12ba6def6bfa4\loader-1.0.0\AndroidManifest.xml:17:1-22:12
MERGED from [androidx.activity:activity:1.0.0] C:\Users\zZet\.gradle\caches\transforms-2\files-2.1\68dbf8ea01a1dbd974fc87b5753550f0\jetified-activity-1.0.0\AndroidManifest.xml:17:1-24:12
MERGED from [androidx.customview:customview:1.0.0] C:\Users\zZet\.gradle\caches\transforms-2\files-2.1\bc28a09d8d2212ffd5788fe6c1853326\customview-1.0.0\AndroidManifest.xml:17:1-22:12
MERGED from [androidx.core:core:1.1.0] C:\Users\zZet\.gradle\caches\transforms-2\files-2.1\2e94107f30f39be366a17347c2bf100b\core-1.1.0\AndroidManifest.xml:17:1-26:12
MERGED from [androidx.lifecycle:lifecycle-runtime:2.2.0] C:\Users\zZet\.gradle\caches\transforms-2\files-2.1\ca6b214160bd0909b103aa12202ef51c\lifecycle-runtime-2.2.0\AndroidManifest.xml:17:1-24:12
MERGED from [androidx.savedstate:savedstate:1.0.0] C:\Users\zZet\.gradle\caches\transforms-2\files-2.1\2271d874344878e62b9a8e309af0c39d\jetified-savedstate-1.0.0\AndroidManifest.xml:17:1-24:12
MERGED from [androidx.lifecycle:lifecycle-livedata:2.0.0] C:\Users\zZet\.gradle\caches\transforms-2\files-2.1\fb333fb43575d8a3b51161295454427f\lifecycle-livedata-2.0.0\AndroidManifest.xml:17:1-22:12
MERGED from [androidx.lifecycle:lifecycle-livedata-core:2.0.0] C:\Users\zZet\.gradle\caches\transforms-2\files-2.1\cad25976877a6ae855ef6821534f58a1\lifecycle-livedata-core-2.0.0\AndroidManifest.xml:17:1-22:12
MERGED from [com.google.android.exoplayer:exoplayer-extractor:2.14.1] C:\Users\zZet\.gradle\caches\transforms-2\files-2.1\b712161584c0f03d21bcedf0af2bd366\jetified-exoplayer-extractor-2.14.1\AndroidManifest.xml:17:1-24:12
MERGED from [com.google.android.exoplayer:exoplayer-common:2.14.1] C:\Users\zZet\.gradle\caches\transforms-2\files-2.1\9c869d6c39afd30e0ee6a960de621a9b\jetified-exoplayer-common-2.14.1\AndroidManifest.xml:17:1-26:12
MERGED from [androidx.arch.core:core-runtime:2.0.0] C:\Users\zZet\.gradle\caches\transforms-2\files-2.1\5f606c30f064eed94124828de37fadc0\core-runtime-2.0.0\AndroidManifest.xml:17:1-22:12
MERGED from [androidx.versionedparcelable:versionedparcelable:1.1.0] C:\Users\zZet\.gradle\caches\transforms-2\files-2.1\96aee308bccd03bc62c306516c23a410\versionedparcelable-1.1.0\AndroidManifest.xml:17:1-27:12
MERGED from [androidx.lifecycle:lifecycle-viewmodel:2.1.0] C:\Users\zZet\.gradle\caches\transforms-2\files-2.1\15792e6083b2b5b5a7ffa285d47daa24\lifecycle-viewmodel-2.1.0\AndroidManifest.xml:17:1-22:12
INJECTED from D:\flutter\topsonia_ai\android\app\src\debug\AndroidManifest.xml:1:1-7:12
INJECTED from D:\flutter\topsonia_ai\android\app\src\debug\AndroidManifest.xml:1:1-7:12
INJECTED from D:\flutter\topsonia_ai\android\app\src\debug\AndroidManifest.xml:1:1-7:12
	package
		ADDED from D:\flutter\topsonia_ai\android\app\src\main\AndroidManifest.xml:2:5-42
		INJECTED from D:\flutter\topsonia_ai\android\app\src\main\AndroidManifest.xml
		INJECTED from D:\flutter\topsonia_ai\android\app\src\debug\AndroidManifest.xml
	android:versionName
		INJECTED from D:\flutter\topsonia_ai\android\app\src\main\AndroidManifest.xml
		ADDED from D:\flutter\topsonia_ai\android\app\src\main\AndroidManifest.xml:1:1-51:12
		INJECTED from D:\flutter\topsonia_ai\android\app\src\debug\AndroidManifest.xml
	android:versionCode
		INJECTED from D:\flutter\topsonia_ai\android\app\src\main\AndroidManifest.xml
		ADDED from D:\flutter\topsonia_ai\android\app\src\main\AndroidManifest.xml:1:1-51:12
		INJECTED from D:\flutter\topsonia_ai\android\app\src\debug\AndroidManifest.xml
	xmlns:android
		ADDED from D:\flutter\topsonia_ai\android\app\src\main\AndroidManifest.xml:1:11-69
uses-permission#android.permission.INTERNET
ADDED from D:\flutter\topsonia_ai\android\app\src\main\AndroidManifest.xml:4:9-71
MERGED from D:\flutter\topsonia_ai\android\app\src\main\AndroidManifest.xml:4:9-71
MERGED from D:\flutter\topsonia_ai\android\app\src\main\AndroidManifest.xml:4:9-71
MERGED from D:\flutter\topsonia_ai\android\app\src\main\AndroidManifest.xml:50:5-66
MERGED from D:\flutter\topsonia_ai\android\app\src\main\AndroidManifest.xml:50:5-66
	android:name
		ADDED from D:\flutter\topsonia_ai\android\app\src\main\AndroidManifest.xml:4:26-68
uses-permission#android.permission.ACCESS_FINE_LOCATION
ADDED from D:\flutter\topsonia_ai\android\app\src\main\AndroidManifest.xml:5:9-83
	android:name
		ADDED from D:\flutter\topsonia_ai\android\app\src\main\AndroidManifest.xml:5:26-80
uses-permission#android.permission.ACCESS_NETWORK_STATE
ADDED from D:\flutter\topsonia_ai\android\app\src\main\AndroidManifest.xml:6:9-83
MERGED from [com.google.android.exoplayer:exoplayer-core:2.14.1] C:\Users\zZet\.gradle\caches\transforms-2\files-2.1\60b85d32c76f6174d43e445a6aa2cefb\jetified-exoplayer-core-2.14.1\AndroidManifest.xml:24:5-79
MERGED from [com.google.android.exoplayer:exoplayer-core:2.14.1] C:\Users\zZet\.gradle\caches\transforms-2\files-2.1\60b85d32c76f6174d43e445a6aa2cefb\jetified-exoplayer-core-2.14.1\AndroidManifest.xml:24:5-79
MERGED from [com.google.android.exoplayer:exoplayer-common:2.14.1] C:\Users\zZet\.gradle\caches\transforms-2\files-2.1\9c869d6c39afd30e0ee6a960de621a9b\jetified-exoplayer-common-2.14.1\AndroidManifest.xml:24:5-79
MERGED from [com.google.android.exoplayer:exoplayer-common:2.14.1] C:\Users\zZet\.gradle\caches\transforms-2\files-2.1\9c869d6c39afd30e0ee6a960de621a9b\jetified-exoplayer-common-2.14.1\AndroidManifest.xml:24:5-79
	android:name
		ADDED from D:\flutter\topsonia_ai\android\app\src\main\AndroidManifest.xml:6:26-80
uses-permission#android.permission.CHANGE_NETWORK_STATE
ADDED from D:\flutter\topsonia_ai\android\app\src\main\AndroidManifest.xml:7:9-83
	android:name
		ADDED from D:\flutter\topsonia_ai\android\app\src\main\AndroidManifest.xml:7:26-80
uses-permission#android.permission.READ_EXTERNAL_STORAGE
ADDED from D:\flutter\topsonia_ai\android\app\src\main\AndroidManifest.xml:8:9-84
	android:name
		ADDED from D:\flutter\topsonia_ai\android\app\src\main\AndroidManifest.xml:8:26-81
uses-permission#android.permission.WRITE_EXTERNAL_STORAGE
ADDED from D:\flutter\topsonia_ai\android\app\src\main\AndroidManifest.xml:9:9-85
	android:name
		ADDED from D:\flutter\topsonia_ai\android\app\src\main\AndroidManifest.xml:9:26-82
application
ADDED from D:\flutter\topsonia_ai\android\app\src\main\AndroidManifest.xml:11:4-49:19
MERGED from [androidx.core:core:1.1.0] C:\Users\zZet\.gradle\caches\transforms-2\files-2.1\2e94107f30f39be366a17347c2bf100b\core-1.1.0\AndroidManifest.xml:24:5-89
MERGED from [androidx.core:core:1.1.0] C:\Users\zZet\.gradle\caches\transforms-2\files-2.1\2e94107f30f39be366a17347c2bf100b\core-1.1.0\AndroidManifest.xml:24:5-89
MERGED from [androidx.versionedparcelable:versionedparcelable:1.1.0] C:\Users\zZet\.gradle\caches\transforms-2\files-2.1\96aee308bccd03bc62c306516c23a410\versionedparcelable-1.1.0\AndroidManifest.xml:24:5-25:19
MERGED from [androidx.versionedparcelable:versionedparcelable:1.1.0] C:\Users\zZet\.gradle\caches\transforms-2\files-2.1\96aee308bccd03bc62c306516c23a410\versionedparcelable-1.1.0\AndroidManifest.xml:24:5-25:19
	android:appComponentFactory
		ADDED from [androidx.core:core:1.1.0] C:\Users\zZet\.gradle\caches\transforms-2\files-2.1\2e94107f30f39be366a17347c2bf100b\core-1.1.0\AndroidManifest.xml:24:18-86
	android:label
		ADDED from D:\flutter\topsonia_ai\android\app\src\main\AndroidManifest.xml:12:9-39
	android:icon
		ADDED from D:\flutter\topsonia_ai\android\app\src\main\AndroidManifest.xml:13:9-43
activity#com.example.topsonia_mobile.MainActivity
ADDED from D:\flutter\topsonia_ai\android\app\src\main\AndroidManifest.xml:14:9-43:20
	android:requestLegacyExternalStorage
		ADDED from D:\flutter\topsonia_ai\android\app\src\main\AndroidManifest.xml:18:13-56
	android:launchMode
		ADDED from D:\flutter\topsonia_ai\android\app\src\main\AndroidManifest.xml:16:13-43
	android:hardwareAccelerated
		ADDED from D:\flutter\topsonia_ai\android\app\src\main\AndroidManifest.xml:20:13-47
	android:windowSoftInputMode
		ADDED from D:\flutter\topsonia_ai\android\app\src\main\AndroidManifest.xml:21:13-55
	android:configChanges
		ADDED from D:\flutter\topsonia_ai\android\app\src\main\AndroidManifest.xml:19:13-163
	android:theme
		ADDED from D:\flutter\topsonia_ai\android\app\src\main\AndroidManifest.xml:17:13-47
	android:name
		ADDED from D:\flutter\topsonia_ai\android\app\src\main\AndroidManifest.xml:15:13-41
meta-data#io.flutter.embedding.android.NormalTheme
ADDED from D:\flutter\topsonia_ai\android\app\src\main\AndroidManifest.xml:26:13-29:17
	android:resource
		ADDED from D:\flutter\topsonia_ai\android\app\src\main\AndroidManifest.xml:28:15-52
	android:name
		ADDED from D:\flutter\topsonia_ai\android\app\src\main\AndroidManifest.xml:27:15-70
meta-data#io.flutter.embedding.android.SplashScreenDrawable
ADDED from D:\flutter\topsonia_ai\android\app\src\main\AndroidManifest.xml:35:13-38:17
	android:resource
		ADDED from D:\flutter\topsonia_ai\android\app\src\main\AndroidManifest.xml:37:15-61
	android:name
		ADDED from D:\flutter\topsonia_ai\android\app\src\main\AndroidManifest.xml:36:15-79
intent-filter#action:name:android.intent.action.MAIN+category:name:android.intent.category.LAUNCHER
ADDED from D:\flutter\topsonia_ai\android\app\src\main\AndroidManifest.xml:39:13-42:29
action#android.intent.action.MAIN
ADDED from D:\flutter\topsonia_ai\android\app\src\main\AndroidManifest.xml:40:17-68
	android:name
		ADDED from D:\flutter\topsonia_ai\android\app\src\main\AndroidManifest.xml:40:25-66
category#android.intent.category.LAUNCHER
ADDED from D:\flutter\topsonia_ai\android\app\src\main\AndroidManifest.xml:41:17-76
	android:name
		ADDED from D:\flutter\topsonia_ai\android\app\src\main\AndroidManifest.xml:41:27-74
meta-data#flutterEmbedding
ADDED from D:\flutter\topsonia_ai\android\app\src\main\AndroidManifest.xml:46:9-48:33
	android:value
		ADDED from D:\flutter\topsonia_ai\android\app\src\main\AndroidManifest.xml:48:13-30
	android:name
		ADDED from D:\flutter\topsonia_ai\android\app\src\main\AndroidManifest.xml:47:13-44
uses-sdk
INJECTED from D:\flutter\topsonia_ai\android\app\src\main\AndroidManifest.xml reason: use-sdk injection requested
INJECTED from D:\flutter\topsonia_ai\android\app\src\main\AndroidManifest.xml
INJECTED from D:\flutter\topsonia_ai\android\app\src\main\AndroidManifest.xml
MERGED from [:video_player] D:\flutter\topsonia_ai\build\video_player\intermediates\library_manifest\debug\AndroidManifest.xml:5:5-44
MERGED from [:video_player] D:\flutter\topsonia_ai\build\video_player\intermediates\library_manifest\debug\AndroidManifest.xml:5:5-44
MERGED from [:sqflite] D:\flutter\topsonia_ai\build\sqflite\intermediates\library_manifest\debug\AndroidManifest.xml:5:5-44
MERGED from [:sqflite] D:\flutter\topsonia_ai\build\sqflite\intermediates\library_manifest\debug\AndroidManifest.xml:5:5-44
MERGED from [:path_provider] D:\flutter\topsonia_ai\build\path_provider\intermediates\library_manifest\debug\AndroidManifest.xml:5:5-44
MERGED from [:path_provider] D:\flutter\topsonia_ai\build\path_provider\intermediates\library_manifest\debug\AndroidManifest.xml:5:5-44
MERGED from [:webview_flutter_android] D:\flutter\topsonia_ai\build\webview_flutter_android\intermediates\library_manifest\debug\AndroidManifest.xml:5:5-44
MERGED from [:webview_flutter_android] D:\flutter\topsonia_ai\build\webview_flutter_android\intermediates\library_manifest\debug\AndroidManifest.xml:5:5-44
MERGED from [:wakelock] D:\flutter\topsonia_ai\build\wakelock\intermediates\library_manifest\debug\AndroidManifest.xml:5:5-44
MERGED from [:wakelock] D:\flutter\topsonia_ai\build\wakelock\intermediates\library_manifest\debug\AndroidManifest.xml:5:5-44
MERGED from [com.google.android.exoplayer:exoplayer-hls:2.14.1] C:\Users\zZet\.gradle\caches\transforms-2\files-2.1\b2ea5e05fb4fb851184e9b0af980bf49\jetified-exoplayer-hls-2.14.1\AndroidManifest.xml:20:5-22:41
MERGED from [com.google.android.exoplayer:exoplayer-hls:2.14.1] C:\Users\zZet\.gradle\caches\transforms-2\files-2.1\b2ea5e05fb4fb851184e9b0af980bf49\jetified-exoplayer-hls-2.14.1\AndroidManifest.xml:20:5-22:41
MERGED from [com.google.android.exoplayer:exoplayer-dash:2.14.1] C:\Users\zZet\.gradle\caches\transforms-2\files-2.1\f09b8ddd78b021f724ecbb270644c7ef\jetified-exoplayer-dash-2.14.1\AndroidManifest.xml:20:5-22:41
MERGED from [com.google.android.exoplayer:exoplayer-dash:2.14.1] C:\Users\zZet\.gradle\caches\transforms-2\files-2.1\f09b8ddd78b021f724ecbb270644c7ef\jetified-exoplayer-dash-2.14.1\AndroidManifest.xml:20:5-22:41
MERGED from [com.google.android.exoplayer:exoplayer-smoothstreaming:2.14.1] C:\Users\zZet\.gradle\caches\transforms-2\files-2.1\d9c8ace75a2893fac3be87cf34cd39b5\jetified-exoplayer-smoothstreaming-2.14.1\AndroidManifest.xml:20:5-22:41
MERGED from [com.google.android.exoplayer:exoplayer-smoothstreaming:2.14.1] C:\Users\zZet\.gradle\caches\transforms-2\files-2.1\d9c8ace75a2893fac3be87cf34cd39b5\jetified-exoplayer-smoothstreaming-2.14.1\AndroidManifest.xml:20:5-22:41
MERGED from [com.google.android.exoplayer:exoplayer-core:2.14.1] C:\Users\zZet\.gradle\caches\transforms-2\files-2.1\60b85d32c76f6174d43e445a6aa2cefb\jetified-exoplayer-core-2.14.1\AndroidManifest.xml:20:5-22:41
MERGED from [com.google.android.exoplayer:exoplayer-core:2.14.1] C:\Users\zZet\.gradle\caches\transforms-2\files-2.1\60b85d32c76f6174d43e445a6aa2cefb\jetified-exoplayer-core-2.14.1\AndroidManifest.xml:20:5-22:41
MERGED from [androidx.webkit:webkit:1.0.0] C:\Users\zZet\.gradle\caches\transforms-2\files-2.1\cbbb6921b2521959953b0c781fe5c304\webkit-1.0.0\AndroidManifest.xml:20:5-44
MERGED from [androidx.webkit:webkit:1.0.0] C:\Users\zZet\.gradle\caches\transforms-2\files-2.1\cbbb6921b2521959953b0c781fe5c304\webkit-1.0.0\AndroidManifest.xml:20:5-44
MERGED from [androidx.fragment:fragment:1.1.0] C:\Users\zZet\.gradle\caches\transforms-2\files-2.1\2fd9120a6da4df3dbabdd40f6a2d8995\fragment-1.1.0\AndroidManifest.xml:20:5-22:41
MERGED from [androidx.fragment:fragment:1.1.0] C:\Users\zZet\.gradle\caches\transforms-2\files-2.1\2fd9120a6da4df3dbabdd40f6a2d8995\fragment-1.1.0\AndroidManifest.xml:20:5-22:41
MERGED from [androidx.viewpager:viewpager:1.0.0] C:\Users\zZet\.gradle\caches\transforms-2\files-2.1\eb26273f8f7192460456ce62b9bdf9ef\viewpager-1.0.0\AndroidManifest.xml:20:5-44
MERGED from [androidx.viewpager:viewpager:1.0.0] C:\Users\zZet\.gradle\caches\transforms-2\files-2.1\eb26273f8f7192460456ce62b9bdf9ef\viewpager-1.0.0\AndroidManifest.xml:20:5-44
MERGED from [androidx.loader:loader:1.0.0] C:\Users\zZet\.gradle\caches\transforms-2\files-2.1\d9536c14ffde0b7289f12ba6def6bfa4\loader-1.0.0\AndroidManifest.xml:20:5-44
MERGED from [androidx.loader:loader:1.0.0] C:\Users\zZet\.gradle\caches\transforms-2\files-2.1\d9536c14ffde0b7289f12ba6def6bfa4\loader-1.0.0\AndroidManifest.xml:20:5-44
MERGED from [androidx.activity:activity:1.0.0] C:\Users\zZet\.gradle\caches\transforms-2\files-2.1\68dbf8ea01a1dbd974fc87b5753550f0\jetified-activity-1.0.0\AndroidManifest.xml:20:5-22:41
MERGED from [androidx.activity:activity:1.0.0] C:\Users\zZet\.gradle\caches\transforms-2\files-2.1\68dbf8ea01a1dbd974fc87b5753550f0\jetified-activity-1.0.0\AndroidManifest.xml:20:5-22:41
MERGED from [androidx.customview:customview:1.0.0] C:\Users\zZet\.gradle\caches\transforms-2\files-2.1\bc28a09d8d2212ffd5788fe6c1853326\customview-1.0.0\AndroidManifest.xml:20:5-44
MERGED from [androidx.customview:customview:1.0.0] C:\Users\zZet\.gradle\caches\transforms-2\files-2.1\bc28a09d8d2212ffd5788fe6c1853326\customview-1.0.0\AndroidManifest.xml:20:5-44
MERGED from [androidx.core:core:1.1.0] C:\Users\zZet\.gradle\caches\transforms-2\files-2.1\2e94107f30f39be366a17347c2bf100b\core-1.1.0\AndroidManifest.xml:20:5-22:41
MERGED from [androidx.core:core:1.1.0] C:\Users\zZet\.gradle\caches\transforms-2\files-2.1\2e94107f30f39be366a17347c2bf100b\core-1.1.0\AndroidManifest.xml:20:5-22:41
MERGED from [androidx.lifecycle:lifecycle-runtime:2.2.0] C:\Users\zZet\.gradle\caches\transforms-2\files-2.1\ca6b214160bd0909b103aa12202ef51c\lifecycle-runtime-2.2.0\AndroidManifest.xml:20:5-22:41
MERGED from [androidx.lifecycle:lifecycle-runtime:2.2.0] C:\Users\zZet\.gradle\caches\transforms-2\files-2.1\ca6b214160bd0909b103aa12202ef51c\lifecycle-runtime-2.2.0\AndroidManifest.xml:20:5-22:41
MERGED from [androidx.savedstate:savedstate:1.0.0] C:\Users\zZet\.gradle\caches\transforms-2\files-2.1\2271d874344878e62b9a8e309af0c39d\jetified-savedstate-1.0.0\AndroidManifest.xml:20:5-22:41
MERGED from [androidx.savedstate:savedstate:1.0.0] C:\Users\zZet\.gradle\caches\transforms-2\files-2.1\2271d874344878e62b9a8e309af0c39d\jetified-savedstate-1.0.0\AndroidManifest.xml:20:5-22:41
MERGED from [androidx.lifecycle:lifecycle-livedata:2.0.0] C:\Users\zZet\.gradle\caches\transforms-2\files-2.1\fb333fb43575d8a3b51161295454427f\lifecycle-livedata-2.0.0\AndroidManifest.xml:20:5-44
MERGED from [androidx.lifecycle:lifecycle-livedata:2.0.0] C:\Users\zZet\.gradle\caches\transforms-2\files-2.1\fb333fb43575d8a3b51161295454427f\lifecycle-livedata-2.0.0\AndroidManifest.xml:20:5-44
MERGED from [androidx.lifecycle:lifecycle-livedata-core:2.0.0] C:\Users\zZet\.gradle\caches\transforms-2\files-2.1\cad25976877a6ae855ef6821534f58a1\lifecycle-livedata-core-2.0.0\AndroidManifest.xml:20:5-44
MERGED from [androidx.lifecycle:lifecycle-livedata-core:2.0.0] C:\Users\zZet\.gradle\caches\transforms-2\files-2.1\cad25976877a6ae855ef6821534f58a1\lifecycle-livedata-core-2.0.0\AndroidManifest.xml:20:5-44
MERGED from [com.google.android.exoplayer:exoplayer-extractor:2.14.1] C:\Users\zZet\.gradle\caches\transforms-2\files-2.1\b712161584c0f03d21bcedf0af2bd366\jetified-exoplayer-extractor-2.14.1\AndroidManifest.xml:20:5-22:41
MERGED from [com.google.android.exoplayer:exoplayer-extractor:2.14.1] C:\Users\zZet\.gradle\caches\transforms-2\files-2.1\b712161584c0f03d21bcedf0af2bd366\jetified-exoplayer-extractor-2.14.1\AndroidManifest.xml:20:5-22:41
MERGED from [com.google.android.exoplayer:exoplayer-common:2.14.1] C:\Users\zZet\.gradle\caches\transforms-2\files-2.1\9c869d6c39afd30e0ee6a960de621a9b\jetified-exoplayer-common-2.14.1\AndroidManifest.xml:20:5-22:41
MERGED from [com.google.android.exoplayer:exoplayer-common:2.14.1] C:\Users\zZet\.gradle\caches\transforms-2\files-2.1\9c869d6c39afd30e0ee6a960de621a9b\jetified-exoplayer-common-2.14.1\AndroidManifest.xml:20:5-22:41
MERGED from [androidx.arch.core:core-runtime:2.0.0] C:\Users\zZet\.gradle\caches\transforms-2\files-2.1\5f606c30f064eed94124828de37fadc0\core-runtime-2.0.0\AndroidManifest.xml:20:5-44
MERGED from [androidx.arch.core:core-runtime:2.0.0] C:\Users\zZet\.gradle\caches\transforms-2\files-2.1\5f606c30f064eed94124828de37fadc0\core-runtime-2.0.0\AndroidManifest.xml:20:5-44
MERGED from [androidx.versionedparcelable:versionedparcelable:1.1.0] C:\Users\zZet\.gradle\caches\transforms-2\files-2.1\96aee308bccd03bc62c306516c23a410\versionedparcelable-1.1.0\AndroidManifest.xml:20:5-22:41
MERGED from [androidx.versionedparcelable:versionedparcelable:1.1.0] C:\Users\zZet\.gradle\caches\transforms-2\files-2.1\96aee308bccd03bc62c306516c23a410\versionedparcelable-1.1.0\AndroidManifest.xml:20:5-22:41
MERGED from [androidx.lifecycle:lifecycle-viewmodel:2.1.0] C:\Users\zZet\.gradle\caches\transforms-2\files-2.1\15792e6083b2b5b5a7ffa285d47daa24\lifecycle-viewmodel-2.1.0\AndroidManifest.xml:20:5-44
MERGED from [androidx.lifecycle:lifecycle-viewmodel:2.1.0] C:\Users\zZet\.gradle\caches\transforms-2\files-2.1\15792e6083b2b5b5a7ffa285d47daa24\lifecycle-viewmodel-2.1.0\AndroidManifest.xml:20:5-44
INJECTED from D:\flutter\topsonia_ai\android\app\src\debug\AndroidManifest.xml
INJECTED from D:\flutter\topsonia_ai\android\app\src\debug\AndroidManifest.xml
	android:targetSdkVersion
		INJECTED from D:\flutter\topsonia_ai\android\app\src\main\AndroidManifest.xml
		INJECTED from D:\flutter\topsonia_ai\android\app\src\debug\AndroidManifest.xml
	android:minSdkVersion
		INJECTED from D:\flutter\topsonia_ai\android\app\src\main\AndroidManifest.xml
		INJECTED from D:\flutter\topsonia_ai\android\app\src\debug\AndroidManifest.xml
