{
  "configVersion": 2,
  "packages": [
    {
      "name": "async",
      "rootUri": "file:///C:/src/flutter/.pub-cache/hosted/pub.dartlang.org/async-2.8.1",
      "packageUri": "lib/",
      "languageVersion": "2.12"
    },
    {
      "name": "boolean_selector",
      "rootUri": "file:///C:/src/flutter/.pub-cache/hosted/pub.dartlang.org/boolean_selector-2.1.0",
      "packageUri": "lib/",
      "languageVersion": "2.12"
    },
    {
      "name": "cached_network_image",
      "rootUri": "file:///C:/src/flutter/.pub-cache/hosted/pub.dartlang.org/cached_network_image-3.1.0+1",
      "packageUri": "lib/",
      "languageVersion": "2.12"
    },
    {
      "name": "cached_network_image_platform_interface",
      "rootUri": "file:///C:/src/flutter/.pub-cache/hosted/pub.dartlang.org/cached_network_image_platform_interface-1.0.0",
      "packageUri": "lib/",
      "languageVersion": "2.12"
    },
    {
      "name": "cached_network_image_web",
      "rootUri": "file:///C:/src/flutter/.pub-cache/hosted/pub.dartlang.org/cached_network_image_web-1.0.1",
      "packageUri": "lib/",
      "languageVersion": "2.12"
    },
    {
      "name": "carousel_slider",
      "rootUri": "file:///C:/src/flutter/.pub-cache/hosted/pub.dartlang.org/carousel_slider-4.0.0",
      "packageUri": "lib/",
      "languageVersion": "2.12"
    },
    {
      "name": "characters",
      "rootUri": "file:///C:/src/flutter/.pub-cache/hosted/pub.dartlang.org/characters-1.1.0",
      "packageUri": "lib/",
      "languageVersion": "2.12"
    },
    {
      "name": "charcode",
      "rootUri": "file:///C:/src/flutter/.pub-cache/hosted/pub.dartlang.org/charcode-1.3.1",
      "packageUri": "lib/",
      "languageVersion": "2.12"
    },
    {
      "name": "chewie",
      "rootUri": "file:///C:/src/flutter/.pub-cache/hosted/pub.dartlang.org/chewie-1.1.0",
      "packageUri": "lib/",
      "languageVersion": "2.13"
    },
    {
      "name": "chewie_audio",
      "rootUri": "file:///C:/src/flutter/.pub-cache/hosted/pub.dartlang.org/chewie_audio-1.2.0",
      "packageUri": "lib/",
      "languageVersion": "2.12"
    },
    {
      "name": "clock",
      "rootUri": "file:///C:/src/flutter/.pub-cache/hosted/pub.dartlang.org/clock-1.1.0",
      "packageUri": "lib/",
      "languageVersion": "2.12"
    },
    {
      "name": "collection",
      "rootUri": "file:///C:/src/flutter/.pub-cache/hosted/pub.dartlang.org/collection-1.15.0",
      "packageUri": "lib/",
      "languageVersion": "2.12"
    },
    {
      "name": "crypto",
      "rootUri": "file:///C:/src/flutter/.pub-cache/hosted/pub.dartlang.org/crypto-3.0.1",
      "packageUri": "lib/",
      "languageVersion": "2.12"
    },
    {
      "name": "csslib",
      "rootUri": "file:///C:/src/flutter/.pub-cache/hosted/pub.dartlang.org/csslib-0.17.1",
      "packageUri": "lib/",
      "languageVersion": "2.12"
    },
    {
      "name": "cupertino_icons",
      "rootUri": "file:///C:/src/flutter/.pub-cache/hosted/pub.dartlang.org/cupertino_icons-1.0.4",
      "packageUri": "lib/",
      "languageVersion": "2.12"
    },
    {
      "name": "fake_async",
      "rootUri": "file:///C:/src/flutter/.pub-cache/hosted/pub.dartlang.org/fake_async-1.2.0",
      "packageUri": "lib/",
      "languageVersion": "2.12"
    },
    {
      "name": "ffi",
      "rootUri": "file:///C:/src/flutter/.pub-cache/hosted/pub.dartlang.org/ffi-1.1.2",
      "packageUri": "lib/",
      "languageVersion": "2.12"
    },
    {
      "name": "file",
      "rootUri": "file:///C:/src/flutter/.pub-cache/hosted/pub.dartlang.org/file-6.1.2",
      "packageUri": "lib/",
      "languageVersion": "2.12"
    },
    {
      "name": "flutter",
      "rootUri": "file:///C:/src/flutter/packages/flutter",
      "packageUri": "lib/",
      "languageVersion": "2.12"
    },
    {
      "name": "flutter_blurhash",
      "rootUri": "file:///C:/src/flutter/.pub-cache/hosted/pub.dartlang.org/flutter_blurhash-0.6.0",
      "packageUri": "lib/",
      "languageVersion": "2.12"
    },
    {
      "name": "flutter_cache_manager",
      "rootUri": "file:///C:/src/flutter/.pub-cache/hosted/pub.dartlang.org/flutter_cache_manager-3.1.3",
      "packageUri": "lib/",
      "languageVersion": "2.12"
    },
    {
      "name": "flutter_html",
      "rootUri": "file:///C:/src/flutter/.pub-cache/hosted/pub.dartlang.org/flutter_html-2.1.5",
      "packageUri": "lib/",
      "languageVersion": "2.12"
    },
    {
      "name": "flutter_layout_grid",
      "rootUri": "file:///C:/src/flutter/.pub-cache/hosted/pub.dartlang.org/flutter_layout_grid-1.0.3",
      "packageUri": "lib/",
      "languageVersion": "2.12"
    },
    {
      "name": "flutter_lints",
      "rootUri": "file:///C:/src/flutter/.pub-cache/hosted/pub.dartlang.org/flutter_lints-1.0.4",
      "packageUri": "lib/",
      "languageVersion": "2.12"
    },
    {
      "name": "flutter_math_fork",
      "rootUri": "file:///C:/src/flutter/.pub-cache/hosted/pub.dartlang.org/flutter_math_fork-0.5.0",
      "packageUri": "lib/",
      "languageVersion": "2.12"
    },
    {
      "name": "flutter_svg",
      "rootUri": "file:///C:/src/flutter/.pub-cache/hosted/pub.dartlang.org/flutter_svg-0.23.0+1",
      "packageUri": "lib/",
      "languageVersion": "2.12"
    },
    {
      "name": "flutter_test",
      "rootUri": "file:///C:/src/flutter/packages/flutter_test",
      "packageUri": "lib/",
      "languageVersion": "2.12"
    },
    {
      "name": "flutter_web_plugins",
      "rootUri": "file:///C:/src/flutter/packages/flutter_web_plugins",
      "packageUri": "lib/",
      "languageVersion": "2.12"
    },
    {
      "name": "google_fonts",
      "rootUri": "file:///C:/src/flutter/.pub-cache/hosted/pub.dartlang.org/google_fonts-2.1.0",
      "packageUri": "lib/",
      "languageVersion": "2.12"
    },
    {
      "name": "html",
      "rootUri": "file:///C:/src/flutter/.pub-cache/hosted/pub.dartlang.org/html-0.15.0",
      "packageUri": "lib/",
      "languageVersion": "2.12"
    },
    {
      "name": "http",
      "rootUri": "file:///C:/src/flutter/.pub-cache/hosted/pub.dartlang.org/http-0.13.4",
      "packageUri": "lib/",
      "languageVersion": "2.14"
    },
    {
      "name": "http_parser",
      "rootUri": "file:///C:/src/flutter/.pub-cache/hosted/pub.dartlang.org/http_parser-4.0.0",
      "packageUri": "lib/",
      "languageVersion": "2.12"
    },
    {
      "name": "intl",
      "rootUri": "file:///C:/src/flutter/.pub-cache/hosted/pub.dartlang.org/intl-0.17.0",
      "packageUri": "lib/",
      "languageVersion": "2.12"
    },
    {
      "name": "js",
      "rootUri": "file:///C:/src/flutter/.pub-cache/hosted/pub.dartlang.org/js-0.6.3",
      "packageUri": "lib/",
      "languageVersion": "2.12"
    },
    {
      "name": "lints",
      "rootUri": "file:///C:/src/flutter/.pub-cache/hosted/pub.dartlang.org/lints-1.0.1",
      "packageUri": "lib/",
      "languageVersion": "2.12"
    },
    {
      "name": "matcher",
      "rootUri": "file:///C:/src/flutter/.pub-cache/hosted/pub.dartlang.org/matcher-0.12.10",
      "packageUri": "lib/",
      "languageVersion": "2.12"
    },
    {
      "name": "meta",
      "rootUri": "file:///C:/src/flutter/.pub-cache/hosted/pub.dartlang.org/meta-1.7.0",
      "packageUri": "lib/",
      "languageVersion": "2.12"
    },
    {
      "name": "nested",
      "rootUri": "file:///C:/src/flutter/.pub-cache/hosted/pub.dartlang.org/nested-1.0.0",
      "packageUri": "lib/",
      "languageVersion": "2.12"
    },
    {
      "name": "numerus",
      "rootUri": "file:///C:/src/flutter/.pub-cache/hosted/pub.dartlang.org/numerus-1.1.1",
      "packageUri": "lib/",
      "languageVersion": "2.12"
    },
    {
      "name": "octo_image",
      "rootUri": "file:///C:/src/flutter/.pub-cache/hosted/pub.dartlang.org/octo_image-1.0.0+1",
      "packageUri": "lib/",
      "languageVersion": "2.12"
    },
    {
      "name": "path",
      "rootUri": "file:///C:/src/flutter/.pub-cache/hosted/pub.dartlang.org/path-1.8.0",
      "packageUri": "lib/",
      "languageVersion": "2.12"
    },
    {
      "name": "path_drawing",
      "rootUri": "file:///C:/src/flutter/.pub-cache/hosted/pub.dartlang.org/path_drawing-0.5.1+1",
      "packageUri": "lib/",
      "languageVersion": "2.12"
    },
    {
      "name": "path_parsing",
      "rootUri": "file:///C:/src/flutter/.pub-cache/hosted/pub.dartlang.org/path_parsing-0.2.1",
      "packageUri": "lib/",
      "languageVersion": "2.12"
    },
    {
      "name": "path_provider",
      "rootUri": "file:///C:/src/flutter/.pub-cache/hosted/pub.dartlang.org/path_provider-2.0.6",
      "packageUri": "lib/",
      "languageVersion": "2.14"
    },
    {
      "name": "path_provider_linux",
      "rootUri": "file:///C:/src/flutter/.pub-cache/hosted/pub.dartlang.org/path_provider_linux-2.1.0",
      "packageUri": "lib/",
      "languageVersion": "2.12"
    },
    {
      "name": "path_provider_macos",
      "rootUri": "file:///C:/src/flutter/.pub-cache/hosted/pub.dartlang.org/path_provider_macos-2.0.2",
      "packageUri": "lib/",
      "languageVersion": "2.12"
    },
    {
      "name": "path_provider_platform_interface",
      "rootUri": "file:///C:/src/flutter/.pub-cache/hosted/pub.dartlang.org/path_provider_platform_interface-2.0.1",
      "packageUri": "lib/",
      "languageVersion": "2.12"
    },
    {
      "name": "path_provider_windows",
      "rootUri": "file:///C:/src/flutter/.pub-cache/hosted/pub.dartlang.org/path_provider_windows-2.0.3",
      "packageUri": "lib/",
      "languageVersion": "2.12"
    },
    {
      "name": "pedantic",
      "rootUri": "file:///C:/src/flutter/.pub-cache/hosted/pub.dartlang.org/pedantic-1.11.1",
      "packageUri": "lib/",
      "languageVersion": "2.12"
    },
    {
      "name": "petitparser",
      "rootUri": "file:///C:/src/flutter/.pub-cache/hosted/pub.dartlang.org/petitparser-4.4.0",
      "packageUri": "lib/",
      "languageVersion": "2.14"
    },
    {
      "name": "platform",
      "rootUri": "file:///C:/src/flutter/.pub-cache/hosted/pub.dartlang.org/platform-3.0.2",
      "packageUri": "lib/",
      "languageVersion": "2.12"
    },
    {
      "name": "plugin_platform_interface",
      "rootUri": "file:///C:/src/flutter/.pub-cache/hosted/pub.dartlang.org/plugin_platform_interface-2.0.2",
      "packageUri": "lib/",
      "languageVersion": "2.12"
    },
    {
      "name": "process",
      "rootUri": "file:///C:/src/flutter/.pub-cache/hosted/pub.dartlang.org/process-4.2.4",
      "packageUri": "lib/",
      "languageVersion": "2.14"
    },
    {
      "name": "provider",
      "rootUri": "file:///C:/src/flutter/.pub-cache/hosted/pub.dartlang.org/provider-6.0.1",
      "packageUri": "lib/",
      "languageVersion": "2.12"
    },
    {
      "name": "quiver",
      "rootUri": "file:///C:/src/flutter/.pub-cache/hosted/pub.dartlang.org/quiver-3.0.1+1",
      "packageUri": "lib/",
      "languageVersion": "2.12"
    },
    {
      "name": "rxdart",
      "rootUri": "file:///C:/src/flutter/.pub-cache/hosted/pub.dartlang.org/rxdart-0.27.2",
      "packageUri": "lib/",
      "languageVersion": "2.12"
    },
    {
      "name": "sky_engine",
      "rootUri": "file:///C:/src/flutter/bin/cache/pkg/sky_engine",
      "packageUri": "lib/",
      "languageVersion": "2.12"
    },
    {
      "name": "source_span",
      "rootUri": "file:///C:/src/flutter/.pub-cache/hosted/pub.dartlang.org/source_span-1.8.1",
      "packageUri": "lib/",
      "languageVersion": "2.12"
    },
    {
      "name": "sqflite",
      "rootUri": "file:///C:/src/flutter/.pub-cache/hosted/pub.dartlang.org/sqflite-2.0.0+4",
      "packageUri": "lib/",
      "languageVersion": "2.12"
    },
    {
      "name": "sqflite_common",
      "rootUri": "file:///C:/src/flutter/.pub-cache/hosted/pub.dartlang.org/sqflite_common-2.0.1+1",
      "packageUri": "lib/",
      "languageVersion": "2.12"
    },
    {
      "name": "stack_trace",
      "rootUri": "file:///C:/src/flutter/.pub-cache/hosted/pub.dartlang.org/stack_trace-1.10.0",
      "packageUri": "lib/",
      "languageVersion": "2.12"
    },
    {
      "name": "stream_channel",
      "rootUri": "file:///C:/src/flutter/.pub-cache/hosted/pub.dartlang.org/stream_channel-2.1.0",
      "packageUri": "lib/",
      "languageVersion": "2.12"
    },
    {
      "name": "string_scanner",
      "rootUri": "file:///C:/src/flutter/.pub-cache/hosted/pub.dartlang.org/string_scanner-1.1.0",
      "packageUri": "lib/",
      "languageVersion": "2.12"
    },
    {
      "name": "synchronized",
      "rootUri": "file:///C:/src/flutter/.pub-cache/hosted/pub.dartlang.org/synchronized-3.0.0",
      "packageUri": "lib/",
      "languageVersion": "2.12"
    },
    {
      "name": "term_glyph",
      "rootUri": "file:///C:/src/flutter/.pub-cache/hosted/pub.dartlang.org/term_glyph-1.2.0",
      "packageUri": "lib/",
      "languageVersion": "2.12"
    },
    {
      "name": "test_api",
      "rootUri": "file:///C:/src/flutter/.pub-cache/hosted/pub.dartlang.org/test_api-0.4.2",
      "packageUri": "lib/",
      "languageVersion": "2.12"
    },
    {
      "name": "tuple",
      "rootUri": "file:///C:/src/flutter/.pub-cache/hosted/pub.dartlang.org/tuple-2.0.0",
      "packageUri": "lib/",
      "languageVersion": "2.12"
    },
    {
      "name": "typed_data",
      "rootUri": "file:///C:/src/flutter/.pub-cache/hosted/pub.dartlang.org/typed_data-1.3.0",
      "packageUri": "lib/",
      "languageVersion": "2.12"
    },
    {
      "name": "uuid",
      "rootUri": "file:///C:/src/flutter/.pub-cache/hosted/pub.dartlang.org/uuid-3.0.5",
      "packageUri": "lib/",
      "languageVersion": "2.12"
    },
    {
      "name": "vector_math",
      "rootUri": "file:///C:/src/flutter/.pub-cache/hosted/pub.dartlang.org/vector_math-2.1.0",
      "packageUri": "lib/",
      "languageVersion": "2.12"
    },
    {
      "name": "video_player",
      "rootUri": "file:///C:/src/flutter/.pub-cache/hosted/pub.dartlang.org/video_player-2.2.7",
      "packageUri": "lib/",
      "languageVersion": "2.14"
    },
    {
      "name": "video_player_platform_interface",
      "rootUri": "file:///C:/src/flutter/.pub-cache/hosted/pub.dartlang.org/video_player_platform_interface-4.2.0",
      "packageUri": "lib/",
      "languageVersion": "2.12"
    },
    {
      "name": "video_player_web",
      "rootUri": "file:///C:/src/flutter/.pub-cache/hosted/pub.dartlang.org/video_player_web-2.0.4",
      "packageUri": "lib/",
      "languageVersion": "2.12"
    },
    {
      "name": "wakelock",
      "rootUri": "file:///C:/src/flutter/.pub-cache/hosted/pub.dartlang.org/wakelock-0.5.6",
      "packageUri": "lib/",
      "languageVersion": "2.12"
    },
    {
      "name": "wakelock_macos",
      "rootUri": "file:///C:/src/flutter/.pub-cache/hosted/pub.dartlang.org/wakelock_macos-0.4.0",
      "packageUri": "lib/",
      "languageVersion": "2.12"
    },
    {
      "name": "wakelock_platform_interface",
      "rootUri": "file:///C:/src/flutter/.pub-cache/hosted/pub.dartlang.org/wakelock_platform_interface-0.3.0",
      "packageUri": "lib/",
      "languageVersion": "2.12"
    },
    {
      "name": "wakelock_web",
      "rootUri": "file:///C:/src/flutter/.pub-cache/hosted/pub.dartlang.org/wakelock_web-0.4.0",
      "packageUri": "lib/",
      "languageVersion": "2.12"
    },
    {
      "name": "wakelock_windows",
      "rootUri": "file:///C:/src/flutter/.pub-cache/hosted/pub.dartlang.org/wakelock_windows-0.2.0",
      "packageUri": "lib/",
      "languageVersion": "2.12"
    },
    {
      "name": "webview_flutter",
      "rootUri": "file:///C:/src/flutter/.pub-cache/hosted/pub.dartlang.org/webview_flutter-2.3.1",
      "packageUri": "lib/",
      "languageVersion": "2.14"
    },
    {
      "name": "webview_flutter_android",
      "rootUri": "file:///C:/src/flutter/.pub-cache/hosted/pub.dartlang.org/webview_flutter_android-2.3.0",
      "packageUri": "lib/",
      "languageVersion": "2.14"
    },
    {
      "name": "webview_flutter_platform_interface",
      "rootUri": "file:///C:/src/flutter/.pub-cache/hosted/pub.dartlang.org/webview_flutter_platform_interface-1.5.1",
      "packageUri": "lib/",
      "languageVersion": "2.12"
    },
    {
      "name": "webview_flutter_wkwebview",
      "rootUri": "file:///C:/src/flutter/.pub-cache/hosted/pub.dartlang.org/webview_flutter_wkwebview-2.4.0",
      "packageUri": "lib/",
      "languageVersion": "2.14"
    },
    {
      "name": "win32",
      "rootUri": "file:///C:/src/flutter/.pub-cache/hosted/pub.dartlang.org/win32-2.2.10",
      "packageUri": "lib/",
      "languageVersion": "2.13"
    },
    {
      "name": "xdg_directories",
      "rootUri": "file:///C:/src/flutter/.pub-cache/hosted/pub.dartlang.org/xdg_directories-0.2.0",
      "packageUri": "lib/",
      "languageVersion": "2.12"
    },
    {
      "name": "xml",
      "rootUri": "file:///C:/src/flutter/.pub-cache/hosted/pub.dartlang.org/xml-5.3.1",
      "packageUri": "lib/",
      "languageVersion": "2.14"
    },
    {
      "name": "topsonia_mobile",
      "rootUri": "../",
      "packageUri": "lib/",
      "languageVersion": "2.12"
    }
  ],
  "generated": "2021-11-30T04:09:03.865869Z",
  "generator": "pub",
  "generatorVersion": "2.14.4"
}
